<svg width="61" height="60" viewBox="0 0 61 60" fill="none" xmlns="http://www.w3.org/2000/svg">
<rect width="61" height="60" fill="#F6F7F9"/>
<path d="M34.005 33.4159V26.6657L30.6299 30.0408L34.005 33.4159Z" fill="white"/>
<path d="M39.2905 38.708V21.3741L34.832 25.8326V34.2495L39.2905 38.708Z" fill="white"/>
<path d="M55.9575 55.332L59.9991 59.4152V0.666809L55.9575 4.75002V55.332Z" fill="white"/>
<path d="M50.668 50.0818L55.0845 54.4983V5.58301L50.668 9.99955V50.0818Z" fill="white"/>
<path d="M40.1172 39.5405L44.5337 43.957V16.1245L40.1172 20.541V39.5405Z" fill="white"/>
<path d="M49.8244 49.2487V10.8331L45.3662 15.2913V44.7905L49.8244 49.2487Z" fill="white"/>
<path d="M6.67334 6.10352e-05H0.589844L3.63157 3.04181L6.67334 6.10352e-05Z" fill="white"/>
<path d="M11.0816 10.5004L21.582 6.10352e-05H15.2901L7.95654 7.37528L11.0816 10.5004Z" fill="white"/>
<path d="M7.3772 6.75026L14.1274 6.10352e-05H7.83559L4.21045 3.62517L7.3772 6.75026Z" fill="white"/>
<path d="M45.1253 6.10352e-05L22.875 22.2494L26 25.416L51.4171 6.10352e-05H45.1253Z" fill="white"/>
<path d="M52.5863 0L26.5859 25.9993L30.0443 29.4575L59.5031 0H52.5863Z" fill="white"/>
<path d="M37.6705 6.10352e-05L19.1294 18.5412L22.296 21.6661L43.962 6.10352e-05H37.6705Z" fill="white"/>
<path d="M22.7438 0L11.6602 11.0837L14.8269 14.2088L29.0356 0H22.7438Z" fill="white"/>
<path d="M30.2014 0L15.4102 14.8329L18.5351 17.9578L36.4929 0H30.2014Z" fill="white"/>
<path d="M0 53.4153V59.4988L0.291655 59.7905L0.499994 59.9988H0.666676H6.58355L0 53.4153Z" fill="white"/>
<path d="M0 45.9572V52.249L7.79187 59.9992H14.0421L0 45.9572Z" fill="white"/>
<path d="M0 38.499V44.7905L15.2496 59.9984H21.4994L0 38.499Z" fill="white"/>
<path d="M0 31.0406V37.3321L22.7086 59.9982H28.9587L0 31.0406Z" fill="white"/>
<path d="M0 23.5826V29.0408V29.8741L30.1254 59.9983H36.4172L34.8338 58.415L0 23.5826Z" fill="white"/>
<path d="M0 16.1255V22.417L37.5838 59.9993H43.8756L0 16.1255Z" fill="white"/>
<path d="M0 8.66699V14.9585L44.5423 59.4989L45.0423 59.9989H51.334L0 8.66699Z" fill="white"/>
<path d="M0 0.583496V7.49997L52.5007 59.9985H59.4175" fill="white"/>
</svg>
